…
#> initsigma         100 
#> breedsigma        50 
#> gravsigma         50 
#> ovisigma      25 
#> lifestage:        immature 
#> 
#> FILTERED
#> --------
#> upper:            1000 
#> lower:            200 
#> spacing:      50 
#> samplenum:        25 
#> 
#> tab
#> # A tibble: 25 x 8
#>    id1    id2    kinship distance     x1     y1      x2       y2
#>    <chr>  <chr>  <chr>      <dbl>  <dbl>  <dbl>   <dbl>    <dbl>
#>  1 95583a 95583b H2C          225  241.   146.    22.9   139.   
#>  2 57361a 57361b H2C          575  -37.9  102.     2.30 -492.   
#>  3 98699a 98699b H2C          275 -107.  -251.   -13.5    -0.406
#>  4 41608a 41608b H2C          275  -16.6  253.   235.    175.   
#>  5 74806a 74806b H2C          425  -22.5  117.  -207.   -265.   
#>  6 72538a 72538b H2C          725 -306.  -267.   229.    235.   
#>  7 65305a 65305b H2C          225   42.1  -56.3  218.     38.3  
#>  8 11724a 11724b H2C          575 -249.   391.   203.     59.1  
#>  9 54137a 54137b H2C          475 -159.    37.2  295.    -74.0  
#> 10 3391a  3391b  H2C          275  167.   188.   -88.6    61.7  
#> # ... with 15 more rows
…
# combine cousin distributions and recompose as object. Chaning kinship
# to standard value for unknown as I will be combining the distributions. 
fc <- dplyr::mutate(kinpair_to_tibble(fullcous), kinship = "UN")
hc <- dplyr::mutate(kinpair_to_tibble(halfcous), kinship = "UN")
cc <- tibble::add_row(fc, hc) 
cousins <- df_to_kinpair(cc)
cousins
#> KINDISPERSE RECORD OF KIN PAIRS
#> -------------------------------
#> kinship:      UN 
#> lifestage:        immature 
#> cycle:            0 
#> 
#> tab
#> # A tibble: 150 x 9
#>    id1   id2   kinship distance    x1     y1      x2     y2 lifestage
#>    <chr> <chr> <chr>      <dbl> <dbl>  <dbl>   <dbl>  <dbl> <chr>    
#>  1 1a    1b    UN          67.5 -65.1  13.9   -14.2  -30.4  immature 
#>  2 2a    2b    UN          33.5  94.7  -2.28   62.2    5.78 immature 
#>  3 3a    3b    UN         118.   50.3  40.2   163.    75.2  immature 
#>  4 4a    4b    UN         298.  112.   40.6   -64.9  281.   immature 
#>  5 5a    5b    UN         178.  136.  115.      7.86  -8.27 immature 
#>  6 6a    6b    UN          25.8  25.4  31.1    20.8    5.76 immature 
#>  7 7a    7b    UN         168.   46.0  -9.32 -121.   -30.1  immature 
#>  8 8a    8b    UN         131.  214.   61.2   146.   173.   immature 
#>  9 9a    9b    UN         162.  -15.9  69.4  -178.    63.8  immature 
#> 10 10a   10b   UN         167.  114.   -1.36   61.7  158.   immature 
#> # ... with 140 more rows
…
#> KINDISPERSE SIMULATION of KIN PAIRS
#> -----------------------------------
#> simtype:      custom 
#> kerneltype:       Gaussian 
#> kinship:      PO 
#> simdims:      100 100 
#> breeding              50 
#> gestation             25 
#> pouch             25 
#> juvenile              100 
#> cycle:            0 0 
#> lifestage:        juvenile 
#> 
#> tab
#> # A tibble: 10,000 x 8
#>    id1   id2   kinship distance    x1    y1     x2       y2
#>    <chr> <chr> <chr>      <dbl> <dbl> <dbl>  <dbl>    <dbl>
#>  1 1a    1b    PO         163.   90.5 54.7  233.    -25.3  
#>  2 2a    2b    PO         113.   70.0  5.08 113.    -99.3  
#>  3 3a    3b    PO         171.   74.2 11.5   52.1  -158.   
#>  4 4a    4b    PO         192.   96.9 27.7  286.     62.2  
#>  5 5a    5b    PO          81.3  48.6 35.5   -8.12   93.7  
#>  6 6a    6b    PO         140.   45.1 28.5  -72.3   105.   
#>  7 7a    7b    PO         122.   69.6 86.2  -16.8     0.546
#>  8 8a    8b    PO         305.   23.3 88.0  325.     43.9  
#>  9 9a    9b    PO          86.6  50.7  6.77 137.      2.19 
#> 10 10a   10b   PO         166.   77.6 33.1  154.   -114.   
#> # ... with 9,990 more rows
…
#> -----------------------------------
#> simtype:      custom 
#> kerneltype:       vgamma 
#> kernelshape:      0.5 
#> kinship:      1C 
#> simdims:      100 100 
#> juvenile              100 
#> breeding              50 
#> gestation             25 
#> pouch             25 
#> cycle:            -1 -1 
#> lifestage:        pouch 
#> 
#> tab
#> # A tibble: 100,000 x 8
#>    id1   id2   kinship distance      x1      y1      x2     y2
#>    <chr> <chr> <chr>      <dbl>   <dbl>   <dbl>   <dbl>  <dbl>
#>  1 1a    1b    1C          241.  152.     99.4   -26.7   261. 
#>  2 2a    2b    1C          326.   25.4   211.    217.    -52.2
#>  3 3a    3b    1C          245.   60.8    48.9  -134.    197. 
#>  4 4a    4b    1C          302.   81.2    -8.31  294.   -222. 
#>  5 5a    5b    1C          182. -143.    -61.1     3.52   45.5
#>  6 6a    6b    1C          330. -155.   -182.     16.3   101. 
#>  7 7a    7b    1C          167.  -10.3    18.6   145.     79.5
#>  8 8a    8b    1C          158.  158.     41.5     2.22   67.0
#>  9 9a    9b    1C          276.   -3.21  144.    -77.5   410. 
#> 10 10a   10b   1C          401. -173.    343.     66.5    22.0
#> # ... with 99,990 more rows
…
#> -----------------------------------
#> simtype:      custom 
#> kerneltype:       vgamma 
#> kernelshape:      0.5 
#> kinship:      FS 
#> simdims:      100 100 
#> juvenile              100 
#> breeding              50 
#> gestation             25 
#> pouch             25 
#> cycle:            -1 -1 
#> lifestage:        pouch 
#> 
#> tab
#> # A tibble: 100,000 x 8
#>    id1   id2   kinship distance    x1    y1    x2    y2
#>    <chr> <chr> <chr>      <dbl> <dbl> <dbl> <dbl> <dbl>
#>  1 1a    1b    FS             0 71.5  78.4  71.5  78.4 
#>  2 2a    2b    FS             0 79.4  49.8  79.4  49.8 
#>  3 3a    3b    FS             0 92.6  57.6  92.6  57.6 
#>  4 4a    4b    FS             0 68.8  19.6  68.8  19.6 
#>  5 5a    5b    FS             0 52.0  35.8  52.0  35.8 
#>  6 6a    6b    FS             0 45.8   6.72 45.8   6.72
#>  7 7a    7b    FS             0  1.76 73.1   1.76 73.1 
#>  8 8a    8b    FS             0  1.45 59.1   1.45 59.1 
#>  9 9a    9b    FS             0 36.1  42.7  36.1  42.7 
#> 10 10a   10b   FS             0 56.4  39.2  56.4  39.2 
#> # ... with 99,990 more rows
…
