using-kindisperse
…
#> initsigma         100 
#> breedsigma        50 
#> gravsigma         50 
#> ovisigma      25 
#> lifestage:        immature 
#> 
#> FILTERED
#> --------
#> upper:            1000 
#> lower:            200 
#> spacing:      50 
#> samplenum:        25 
#> 
#> tab
#> # A tibble: 25 x 8
#>    id1    id2    kinship distance      x1      y1     x2      y2
#>    <chr>  <chr>  <chr>      <dbl>   <dbl>   <dbl>  <dbl>   <dbl>
#>  1 73035a 73035b H2C          325   50.9   -90.9   111.   214.  
#>  2 31590a 31590b H2C          525  135.     41.6  -389.    -6.31
#>  3 86019a 86019b H2C          425  461.    428.    307.    58.0 
#>  4 76172a 76172b H2C          475  114.   -366.     74.0   86.4 
#>  5 79130a 79130b H2C          225  365.    -29.1   134.  -100.  
#>  6 68255a 68255b H2C          225  112.     -1.27  174.   239.  
#>  7 4467a  4467b  H2C          375  157.     95.1   271.   440.  
#>  8 98263a 98263b H2C          675   34.2    87.1  -354.  -440.  
#>  9 99625a 99625b H2C          375 -168.      8.57  215.   -41.7 
#> 10 32078a 32078b H2C          575   -4.69  478.    172.   -67.0 
#> # ... with 15 more rows
…
# combine cousin distributions and recompose as object. Chaning kinship
# to standard value for unknown as I will be combining the distributions. 
fc <- dplyr::mutate(kinpair_to_tibble(fullcous), kinship = "UN")
hc <- dplyr::mutate(kinpair_to_tibble(halfcous), kinship = "UN")
cc <- tibble::add_row(fc, hc) 
cousins <- df_to_kinpair(cc)
cousins
#> KINDISPERSE RECORD OF KIN PAIRS
#> -------------------------------
#> kinship:      UN 
#> lifestage:        immature 
#> cycle:            0 
#> 
#> tab
#> # A tibble: 150 x 9
#>    id1   id2   kinship distance     x1     y1      x2    y2 lifestage
#>    <chr> <chr> <chr>      <dbl>  <dbl>  <dbl>   <dbl> <dbl> <chr>    
#>  1 1a    1b    UN         337.   106.    98.6 -229.   134.  immature 
#>  2 2a    2b    UN         266.   138.  -149.    40.3   98.7 immature 
#>  3 3a    3b    UN          76.8  -87.2  212.   -40.8  151.  immature 
#>  4 4a    4b    UN         331.  -148.   208.    33.3  -68.3 immature 
#>  5 5a    5b    UN          46.0  -11.2  -10.6    7.86  31.2 immature 
#>  6 6a    6b    UN         110.   109.   143.    16.8   81.8 immature 
#>  7 7a    7b    UN         133.   -18.6   94.7  -57.4  -32.1 immature 
#>  8 8a    8b    UN          58.3   49.9  -16.9   -8.25 -20.4 immature 
#>  9 9a    9b    UN         169.   150.    25.2   51.7  163.  immature 
#> 10 10a   10b   UN         141.    89.9  193.   -45.4  152.  immature 
#> # ... with 140 more rows
…
#> KINDISPERSE SIMULATION of KIN PAIRS
#> -----------------------------------
#> simtype:      custom 
#> kerneltype:       Gaussian 
#> kinship:      PO 
#> simdims:      100 100 
#> breeding              50 
#> gestation             25 
#> pouch             25 
#> juvenile              100 
#> cycle:            0 0 
#> lifestage:        juvenile 
#> 
#> tab
#> # A tibble: 10,000 x 8
#>    id1   id2   kinship distance    x1    y1     x2     y2
#>    <chr> <chr> <chr>      <dbl> <dbl> <dbl>  <dbl>  <dbl>
#>  1 1a    1b    PO        141.   35.4  43.7  -106.    50.0
#>  2 2a    2b    PO        119.   44.1  77.0   -75.3   72.1
#>  3 3a    3b    PO        128.   24.6  88.5   -97.5   51.7
#>  4 4a    4b    PO        118.   96.2  48.1   205.    93.8
#>  5 5a    5b    PO          7.11 43.8  25.4    46.4   32.0
#>  6 6a    6b    PO        150.   88.3  44.9   172.   -79.8
#>  7 7a    7b    PO        166.    5.95 28.8    44.7 -132. 
#>  8 8a    8b    PO        100.   74.6  58.6   125.   145. 
#>  9 9a    9b    PO        174.   36.5  81.4   128.   -67.3
#> 10 10a   10b   PO         62.0  70.8   6.36  120.   -31.8
#> # ... with 9,990 more rows
…
#> -----------------------------------
#> simtype:      custom 
#> kerneltype:       vgamma 
#> kernelshape:      0.5 
#> kinship:      1C 
#> simdims:      100 100 
#> juvenile              100 
#> breeding              50 
#> gestation             25 
#> pouch             25 
#> cycle:            -1 -1 
#> lifestage:        pouch 
#> 
#> tab
#> # A tibble: 100,000 x 8
#>    id1   id2   kinship distance      x1       y1     x2    y2
#>    <chr> <chr> <chr>      <dbl>   <dbl>    <dbl>  <dbl> <dbl>
#>  1 1a    1b    1C         310.    92.1   267.      46.7 -39.3
#>  2 2a    2b    1C         171.    51.3    34.8   -101.  112. 
#>  3 3a    3b    1C         274.   155.    357.      73.8  94.6
#>  4 4a    4b    1C          50.0  -31.0    -0.819  -66.1  34.7
#>  5 5a    5b    1C          14.8   52.0   123.      48.0 109. 
#>  6 6a    6b    1C         200.   134.    157.     117.  -41.5
#>  7 7a    7b    1C          32.5 -110.    201.    -114.  233. 
#>  8 8a    8b    1C         336.   371.     50.8    103.  252. 
#>  9 9a    9b    1C          28.3   11.4   170.      35.8 156. 
#> 10 10a   10b   1C         210.    -5.84 -121.     147.   23.9
#> # ... with 99,990 more rows
…
#> -----------------------------------
#> simtype:      custom 
#> kerneltype:       vgamma 
#> kernelshape:      0.5 
#> kinship:      FS 
#> simdims:      100 100 
#> juvenile              100 
#> breeding              50 
#> gestation             25 
#> pouch             25 
#> cycle:            -1 -1 
#> lifestage:        pouch 
#> 
#> tab
#> # A tibble: 100,000 x 8
#>    id1   id2   kinship distance    x1    y1    x2    y2
#>    <chr> <chr> <chr>      <dbl> <dbl> <dbl> <dbl> <dbl>
#>  1 1a    1b    FS             0 98.7  67.0  98.7  67.0 
#>  2 2a    2b    FS             0 31.7  42.9  31.7  42.9 
#>  3 3a    3b    FS             0 39.7  85.1  39.7  85.1 
#>  4 4a    4b    FS             0 68.6  88.7  68.6  88.7 
#>  5 5a    5b    FS             0 20.8   7.84 20.8   7.84
#>  6 6a    6b    FS             0 37.3  34.8  37.3  34.8 
#>  7 7a    7b    FS             0 53.0  89.6  53.0  89.6 
#>  8 8a    8b    FS             0  9.92 16.5   9.92 16.5 
#>  9 9a    9b    FS             0 38.7  54.5  38.7  54.5 
#> 10 10a   10b   FS             0 36.7  49.4  36.7  49.4 
#> # ... with 99,990 more rows
…
